project0/simulation/qsim/project0.msim.vcd
$comment
	File created using the following command:
		vcd file project0.msim.vcd -direction
$end
$date
	Wed May 18 09:54:54 2022
$end
$version
	ModelSim Version 10.5b
$end
$timescale
	1ps
$end

$scope module fa_vlg_vec_tst $end
$var reg 1 ! a $end
$var reg 1 " b $end
$var reg 1 # cin $end
$var wire 1 $ cout $end
$var wire 1 % s $end

$scope module i1 $end
$var wire 1 & gnd $end
$var wire 1 ' vcc $end
$var wire 1 ( unknown $end
$var tri1 1 ) devclrn $end
$var tri1 1 * devpor $end
$var tri1 1 + devoe $end
$var wire 1 , s~output_o $end
$var wire 1 - cout~output_o $end
$var wire 1 . a~input_o $end
$var wire 1 / cin~input_o $end
$var wire 1 0 b~input_o $end
$var wire 1 1 s~0_combout $end
$var wire 1 2 cout~0_combout $end
$upscope $end
$upscope $end
$enddefinitions $end
#0
$dumpvars
0!
0"
0#
x$
x%
0&
1'
x(
1)
1*
1+
x,
x-
0.
0/
00
x1
x2
$end
#4273
02
#4331
01
#8099
0,
0%
#8223
0-
0$
#50000
1!
#50766
1.
#54914
11
#58805
1,
1%
#100000
1"
0!
#100766
10
#100812
0.
#150000
1!
#150766
1.
#154896
12
#154928
01
#158696
0,
0%
#158998
1-
1$
#200000
1#
0"
0!
#200766
1/
#200812
0.
00
#204326
11
#205142
02
#208217
1,
1%
#209092
0-
0$
#250000
1!
#250766
1.
#254896
12
#254928
01
#258696
0,
0%
#258998
1-
1$
#300000
1"
0!
#300766
10
#300812
0.
#350000
1!
#350766
1.
#354914
11
#358805
1,
1%
#400000
0#
0"
0!
#400812
0.
00
0/
#404555
01
#405085
02
#408323
0,
0%
#409035
0-
0$
#450000
1!
#450766
1.
#454914
11
#458805
1,
1%
#500000
1"
0!
#500766
10
#500812
0.
#550000
1!
#550766
1.
#554896
12
#554928
01
#558696
0,
0%
#558998
1-
1$
#600000
1#
0"
0!
#600766
1/
#600812
0.
00
#604326
11
#605142
02
#608217
1,
1%
#609092
0-
0$
#650000
1!
#650766
1.
#654896
12
#654928
01
#658696
0,
0%
#658998
1-
1$
#700000
1"
0!
#700766
10
#700812
0.
#750000
1!
#750766
1.
#754914
11
#758805
1,
1%
#800000
0#
0"
0!
#800812
0.
00
0/
#804555
01
#805085
02
#808323
0,
0%
#809035
0-
0$
#850000
1!
#850766
1.
#854914
11
#858805
1,
1%
#900000
1"
0!
#900766
10
#900812
0.
#950000
1!
#950766
1.
#954896
12
#954928
01
#958696
0,
0%
#958998
1-
1$
