project0/simulation/qsim/project0.msim.vcd
$comment
	File created using the following command:
		vcd file project0.msim.vcd -direction
$end
$date
	Wed May 18 11:40:12 2022
$end
$version
	ModelSim Version 10.5b
$end
$timescale
	1ps
$end

$scope module pc_vlg_vec_tst $end
$var reg 1 ! clk $end
$var reg 8 " in [7:0] $end
$var reg 1 # inc $end
$var reg 1 $ load $end
$var reg 1 % rst $end
$var wire 1 & out [7] $end
$var wire 1 ' out [6] $end
$var wire 1 ( out [5] $end
$var wire 1 ) out [4] $end
$var wire 1 * out [3] $end
$var wire 1 + out [2] $end
$var wire 1 , out [1] $end
$var wire 1 - out [0] $end

$scope module i1 $end
$var wire 1 . gnd $end
$var wire 1 / vcc $end
$var wire 1 0 unknown $end
$var tri1 1 1 devclrn $end
$var tri1 1 2 devpor $end
$var tri1 1 3 devoe $end
$var wire 1 4 out[0]~output_o $end
$var wire 1 5 out[1]~output_o $end
$var wire 1 6 out[2]~output_o $end
$var wire 1 7 out[3]~output_o $end
$var wire 1 8 out[4]~output_o $end
$var wire 1 9 out[5]~output_o $end
$var wire 1 : out[6]~output_o $end
$var wire 1 ; out[7]~output_o $end
$var wire 1 < clk~input_o $end
$var wire 1 = clk~inputclkctrl_outclk $end
$var wire 1 > gen[0].c~1_combout $end
$var wire 1 ? in[0]~input_o $end
$var wire 1 @ rst~input_o $end
$var wire 1 A rst~inputclkctrl_outclk $end
$var wire 1 B load~input_o $end
$var wire 1 C inc~input_o $end
$var wire 1 D e~combout $end
$var wire 1 E gen[0].c~q $end
$var wire 1 F gen[0].c~2 $end
$var wire 1 G gen[1].c~1_combout $end
$var wire 1 H in[1]~input_o $end
$var wire 1 I gen[1].c~q $end
$var wire 1 J gen[1].c~2 $end
$var wire 1 K gen[2].c~1_combout $end
$var wire 1 L in[2]~input_o $end
$var wire 1 M gen[2].c~q $end
$var wire 1 N gen[2].c~2 $end
$var wire 1 O gen[3].c~1_combout $end
$var wire 1 P in[3]~input_o $end
$var wire 1 Q gen[3].c~q $end
$var wire 1 R gen[3].c~2 $end
$var wire 1 S gen[4].c~1_combout $end
$var wire 1 T in[4]~input_o $end
$var wire 1 U gen[4].c~q $end
$var wire 1 V gen[4].c~2 $end
$var wire 1 W gen[5].c~1_combout $end
$var wire 1 X in[5]~input_o $end
$var wire 1 Y gen[5].c~q $end
$var wire 1 Z gen[5].c~2 $end
$var wire 1 [ gen[6].c~1_combout $end
$var wire 1 \ in[6]~input_o $end
$var wire 1 ] gen[6].c~q $end
$var wire 1 ^ gen[6].c~2 $end
$var wire 1 _ gen[7].c~1_combout $end
$var wire 1 ` in[7]~input_o $end
$var wire 1 a gen[7].c~q $end
$upscope $end
$upscope $end
$enddefinitions $end
#0
$dumpvars
0!
b0 "
0#
1$
1%
x-
x,
x+
x*
x)
x(
x'
x&
0.
1/
x0
11
12
13
x4
x5
x6
x7
x8
x9
x:
x;
0<
x=
x>
0?
1@
xA
1B
0C
xD
0E
xF
xG
0H
0I
xJ
xK
0L
0M
xN
xO
0P
0Q
xR
xS
0T
0U
xV
xW
0X
0Y
xZ
x[
0\
0]
x^
x_
0`
0a
$end
#208
0=
#222
1A
#856
0F
#858
0N
#859
0^
#863
0V
#907
1>
#998
1J
#999
1R
#1003
1Z
#1433
0G
#1435
0O
#1436
0_
#1440
0W
#1575
0K
#1576
0S
#1580
0[
#3646
1D
#3952
0;
0&
#4132
08
0)
#4140
05
0,
#4284
04
0-
#4527
06
0+
#4530
0:
0'
#5677
07
0*
#5795
09
0(
#10000
1!
#10766
1<
#10988
1=
#20000
0%
0!
#20812
0<
0@
#21020
0A
0=
#30000
1!
#30766
1<
#30988
1=
#40000
b10000000 "
b11000000 "
b11100000 "
b11110000 "
b11111000 "
b11111100 "
b11111110 "
b11111111 "
0!
#40764
1`
1\
1X
1T
1H
#40766
1P
1L
1?
#40812
0<
#41020
0=
#50000
1!
#50766
1<
#50988
1=
#52855
1E
1I
1M
1Q
1U
1Y
1]
#53312
1a
#53678
1G
#53679
1O
#53687
0>
1K
#53688
1[
#53689
1W
1S
#53779
1F
#53811
1_
#53852
0J
#53925
1N
#53998
0R
#54071
1V
#54144
0Z
#54217
1^
#54356
0G
#54429
0K
#54502
0O
#54575
0S
#54648
0W
#54721
0[
#54794
0_
#57092
18
1)
#57098
15
1,
#57228
14
1-
#57333
1;
1&
#57520
16
1+
#57525
1:
1'
#58532
17
1*
#58652
19
1(
#60000
0$
1#
b1111111 "
b111111 "
b11111 "
b1111 "
b111 "
b11 "
b1 "
b0 "
0!
#60766
1C
#60811
0`
0\
0X
0T
0H
0B
#60812
0<
0P
0L
0?
#61020
0=
#64672
0D
#64956
1D
#70000
1!
#70766
1<
#70988
1=
#72855
0E
0I
0M
0Q
0U
0Y
0]
#73312
0a
#73711
0F
#73713
0N
#73714
0^
#73718
0V
#73762
1>
#73764
1K
#73765
1[
#73773
1S
#73853
1J
#73854
1R
#73858
1Z
#74430
0K
#74431
0S
#74435
0[
#76987
08
0)
#76995
05
0,
#77139
04
0-
#77264
0;
0&
#77382
06
0+
#77385
0:
0'
#78532
07
0*
#78650
09
0(
#80000
b1 "
0!
#80766
1?
#80812
0<
#81020
0=
#90000
1!
#90766
1<
#90988
1=
#92855
1E
#93687
0>
#93779
1F
#94386
1G
#97228
14
1-
#100000
b0 "
0!
#100812
0<
0?
#101020
0=
#110000
1!
#110766
1<
#110988
1=
#112855
0E
1I
#113633
0J
#113698
0G
#113711
0F
#113762
1>
#113784
1J
#114318
1G
#117098
15
1,
#117139
04
0-
#120000
0!
#120812
0<
#121020
0=
#130000
1!
#130766
1<
#130988
1=
#132855
1E
#133687
0>
#133779
1F
#133852
0J
#134356
0G
#134459
1K
#137228
14
1-
#140000
0!
#140812
0<
#141020
0=
#150000
b10000000 "
b11000000 "
b11100000 "
b11110000 "
b11111000 "
b11111100 "
b11111110 "
b11111111 "
1!
#150764
1`
1\
1X
1T
1H
#150766
1<
1P
1L
1?
#150988
1=
#152855
0E
0I
1M
#153688
0K
#153711
0F
#153762
1>
#153780
1N
#153853
1J
#153926
0N
#154460
1K
#156995
05
0,
#157139
04
0-
#157520
16
1+
#160000
0!
#160812
0<
#161020
0=
#170000
b1111111 "
b111111 "
b11111 "
b1111 "
b111 "
b11 "
b1 "
b0 "
1!
#170766
1<
#170811
0`
0\
0X
0T
0H
#170812
0P
0L
0?
#170988
1=
#172855
1E
#173687
0>
#173779
1F
#174386
1G
#177228
14
1-
#180000
0!
#180812
0<
#181020
0=
#190000
1$
0#
1!
#190764
1B
#190766
1<
#190812
0C
#190988
1=
#192855
0E
1I
#193633
0J
#193698
0G
#193706
1N
#193711
0F
#193762
1>
#193784
1J
#193857
0N
#194318
1G
#197098
15
1,
#197139
04
0-
#200000
0!
#200812
0<
#201020
0=
#210000
1!
#210766
1<
#210988
1=
#212855
0I
0M
#213765
0K
#213782
0G
#216995
05
0,
#217382
06
0+
#220000
0!
#220812
0<
#221020
0=
#230000
1!
#230766
1<
#230988
1=
#240000
0!
#240812
0<
#241020
0=
#250000
1!
#250766
1<
#250988
1=
#260000
0!
#260812
0<
#261020
0=
#270000
1!
#270766
1<
#270988
1=
#280000
0!
#280812
0<
#281020
0=
#290000
1!
#290766
1<
#290988
1=
#300000
0!
#300812
0<
#301020
0=
#310000
1!
#310766
1<
#310988
1=
#320000
0!
#320812
0<
#321020
0=
#330000
1!
#330766
1<
#330988
1=
#340000
0!
#340812
0<
#341020
0=
#350000
1!
#350766
1<
#350988
1=
#360000
0!
#360812
0<
#361020
0=
#370000
1!
#370766
1<
#370988
1=
#380000
0!
#380812
0<
#381020
0=
#390000
1!
#390766
1<
#390988
1=
#400000
0!
#400812
0<
#401020
0=
#410000
1!
#410766
1<
#410988
1=
#420000
0!
#420812
0<
#421020
0=
#430000
1!
#430766
1<
#430988
1=
#440000
0!
#440812
0<
#441020
0=
#450000
1!
#450766
1<
#450988
1=
#460000
0!
#460812
0<
#461020
0=
#470000
1!
#470766
1<
#470988
1=
#480000
0!
#480812
0<
#481020
0=
#490000
1!
#490766
1<
#490988
1=
#500000
0!
#500812
0<
#501020
0=
#510000
1!
#510766
1<
#510988
1=
#520000
0!
#520812
0<
#521020
0=
#530000
1!
#530766
1<
#530988
1=
#540000
0!
#540812
0<
#541020
0=
#550000
1!
#550766
1<
#550988
1=
#560000
0!
#560812
0<
#561020
0=
#570000
1!
#570766
1<
#570988
1=
#580000
0!
#580812
0<
#581020
0=
#590000
1!
#590766
1<
#590988
1=
#600000
0!
#600812
0<
#601020
0=
#610000
1!
#610766
1<
#610988
1=
#620000
0!
#620812
0<
#621020
0=
#630000
1!
#630766
1<
#630988
1=
#640000
0!
#640812
0<
#641020
0=
#650000
1!
#650766
1<
#650988
1=
#660000
0!
#660812
0<
#661020
0=
#670000
1!
#670766
1<
#670988
1=
#680000
0!
#680812
0<
#681020
0=
#690000
1!
#690766
1<
#690988
1=
#700000
0!
#700812
0<
#701020
0=
#710000
1!
#710766
1<
#710988
1=
#720000
0!
#720812
0<
#721020
0=
#730000
1!
#730766
1<
#730988
1=
#740000
0!
#740812
0<
#741020
0=
#750000
1!
#750766
1<
#750988
1=
#760000
0!
#760812
0<
#761020
0=
#770000
1!
#770766
1<
#770988
1=
#780000
0!
#780812
0<
#781020
0=
#790000
1!
#790766
1<
#790988
1=
#800000
0!
#800812
0<
#801020
0=
#810000
1!
#810766
1<
#810988
1=
#820000
0!
#820812
0<
#821020
0=
#830000
1!
#830766
1<
#830988
1=
#840000
0!
#840812
0<
#841020
0=
#850000
1!
#850766
1<
#850988
1=
#860000
0!
#860812
0<
#861020
0=
#870000
1!
#870766
1<
#870988
1=
#880000
0!
#880812
0<
#881020
0=
#890000
1!
#890766
1<
#890988
1=
#900000
0!
#900812
0<
#901020
0=
#910000
1!
#910766
1<
#910988
1=
#920000
0!
#920812
0<
#921020
0=
#930000
1!
#930766
1<
#930988
1=
#940000
0!
#940812
0<
#941020
0=
#950000
1!
#950766
1<
#950988
1=
#960000
0!
#960812
0<
#961020
0=
#970000
1!
#970766
1<
#970988
1=
#980000
0!
#980812
0<
#981020
0=
#990000
1!
#990766
1<
